^D:\AAA - FACULTATE\FACULTATE ANUL II\WORKSPACE IP\TEMA IP # 2 - TOKEN RING\TEMA IP 2 - TOKEN RING\TEMA IP 2 - TOKEN RING\DEBUG\HOST.OBJ|D:\AAA - FACULTATE\FACULTATE ANUL II\WORKSPACE IP\TEMA IP # 2 - TOKEN RING\TEMA IP 2 - TOKEN RING\TEMA IP 2 - TOKEN RING\DEBUG\MAIN.OBJ|D:\AAA - FACULTATE\FACULTATE ANUL II\WORKSPACE IP\TEMA IP # 2 - TOKEN RING\TEMA IP 2 - TOKEN RING\TEMA IP 2 - TOKEN RING\DEBUG\TOKEN.OBJ|D:\AAA - FACULTATE\FACULTATE ANUL II\WORKSPACE IP\TEMA IP # 2 - TOKEN RING\TEMA IP 2 - TOKEN RING\TEMA IP 2 - TOKEN RING\DEBUG\TOKENRING.OBJ
C:\PROGRAM FILES (X86)\WINDOWS KITS\10\LIB\10.0.17763.0\UM\X86\KERNEL32.LIB
C:\PROGRAM FILES (X86)\WINDOWS KITS\10\LIB\10.0.17763.0\UM\X86\USER32.LIB
C:\PROGRAM FILES (X86)\WINDOWS KITS\10\LIB\10.0.17763.0\UM\X86\GDI32.LIB
C:\PROGRAM FILES (X86)\WINDOWS KITS\10\LIB\10.0.17763.0\UM\X86\WINSPOOL.LIB
C:\PROGRAM FILES (X86)\WINDOWS KITS\10\LIB\10.0.17763.0\UM\X86\COMDLG32.LIB
C:\PROGRAM FILES (X86)\WINDOWS KITS\10\LIB\10.0.17763.0\UM\X86\ADVAPI32.LIB
C:\PROGRAM FILES (X86)\WINDOWS KITS\10\LIB\10.0.17763.0\UM\X86\SHELL32.LIB
C:\PROGRAM FILES (X86)\WINDOWS KITS\10\LIB\10.0.17763.0\UM\X86\OLE32.LIB
C:\PROGRAM FILES (X86)\WINDOWS KITS\10\LIB\10.0.17763.0\UM\X86\OLEAUT32.LIB
C:\PROGRAM FILES (X86)\WINDOWS KITS\10\LIB\10.0.17763.0\UM\X86\UUID.LIB
C:\PROGRAM FILES (X86)\WINDOWS KITS\10\LIB\10.0.17763.0\UM\X86\ODBC32.LIB
C:\PROGRAM FILES (X86)\WINDOWS KITS\10\LIB\10.0.17763.0\UM\X86\ODBCCP32.LIB
D:\AAA - FACULTATE\FACULTATE ANUL II\WORKSPACE IP\TEMA IP # 2 - TOKEN RING\TEMA IP 2 - TOKEN RING\TEMA IP 2 - TOKEN RING\DEBUG\HOST.OBJ
D:\AAA - FACULTATE\FACULTATE ANUL II\WORKSPACE IP\TEMA IP # 2 - TOKEN RING\TEMA IP 2 - TOKEN RING\TEMA IP 2 - TOKEN RING\DEBUG\MAIN.OBJ
D:\AAA - FACULTATE\FACULTATE ANUL II\WORKSPACE IP\TEMA IP # 2 - TOKEN RING\TEMA IP 2 - TOKEN RING\TEMA IP 2 - TOKEN RING\DEBUG\TOKEN.OBJ
D:\AAA - FACULTATE\FACULTATE ANUL II\WORKSPACE IP\TEMA IP # 2 - TOKEN RING\TEMA IP 2 - TOKEN RING\TEMA IP 2 - TOKEN RING\DEBUG\TOKENRING.OBJ
C:\WINDOWS\SYSTEM32\TZRES.DLL
C:\WINDOWS\GLOBALIZATION\SORTING\SORTDEFAULT.NLS
C:\PROGRAM FILES (X86)\MICROSOFT VISUAL STUDIO\2019\ENTERPRISE\VC\TOOLS\MSVC\14.20.27508\LIB\X86\MSVCPRTD.LIB
C:\PROGRAM FILES (X86)\MICROSOFT VISUAL STUDIO\2019\ENTERPRISE\VC\TOOLS\MSVC\14.20.27508\LIB\X86\MSVCRTD.LIB
C:\PROGRAM FILES (X86)\MICROSOFT VISUAL STUDIO\2019\ENTERPRISE\VC\TOOLS\MSVC\14.20.27508\LIB\X86\OLDNAMES.LIB
C:\PROGRAM FILES (X86)\MICROSOFT VISUAL STUDIO\2019\ENTERPRISE\VC\TOOLS\MSVC\14.20.27508\LIB\X86\VCRUNTIMED.LIB
C:\PROGRAM FILES (X86)\WINDOWS KITS\10\LIB\10.0.17763.0\UCRT\X86\UCRTD.LIB
C:\PROGRAM FILES (X86)\MICROSOFT VISUAL STUDIO\2019\ENTERPRISE\VC\TOOLS\MSVC\14.20.27508\BIN\HOSTX86\X86\MSPDBSRV.EXE
